{
	"textures": [
		{
			"image": "interface.png",
			"format": "RGBA8888",
			"size": {
				"w": 1678,
				"h": 2027
			},
			"scale": 1,
			"frames": [
				{
					"filename": "background_big",
					"rotated": false,
					"trimmed": false,
					"sourceSize": {
						"w": 1024,
						"h": 768
					},
					"spriteSourceSize": {
						"x": 0,
						"y": 0,
						"w": 1024,
						"h": 768
					},
					"frame": {
						"x": 3,
						"y": 3,
						"w": 1024,
						"h": 768
					}
				},
				{
					"filename": "field-shadow",
					"rotated": false,
					"trimmed": true,
					"sourceSize": {
						"w": 688,
						"h": 588
					},
					"spriteSourceSize": {
						"x": 1,
						"y": 2,
						"w": 685,
						"h": 584
					},
					"frame": {
						"x": 3,
						"y": 773,
						"w": 685,
						"h": 584
					}
				},
				{
					"filename": "jan",
					"rotated": false,
					"trimmed": true,
					"sourceSize": {
						"w": 599,
						"h": 549
					},
					"spriteSourceSize": {
						"x": 0,
						"y": 5,
						"w": 599,
						"h": 544
					},
					"frame": {
						"x": 1029,
						"y": 3,
						"w": 599,
						"h": 544
					}
				},
				{
					"filename": "messag-bg-blue",
					"rotated": false,
					"trimmed": true,
					"sourceSize": {
						"w": 542,
						"h": 594
					},
					"spriteSourceSize": {
						"x": 3,
						"y": 3,
						"w": 537,
						"h": 589
					},
					"frame": {
						"x": 3,
						"y": 1359,
						"w": 537,
						"h": 589
					}
				},
				{
					"filename": "messag-bg-red",
					"rotated": false,
					"trimmed": true,
					"sourceSize": {
						"w": 542,
						"h": 594
					},
					"spriteSourceSize": {
						"x": 3,
						"y": 3,
						"w": 537,
						"h": 589
					},
					"frame": {
						"x": 690,
						"y": 773,
						"w": 537,
						"h": 589
					}
				},
				{
					"filename": "logo_circles",
					"rotated": false,
					"trimmed": false,
					"sourceSize": {
						"w": 928,
						"h": 294
					},
					"spriteSourceSize": {
						"x": 0,
						"y": 0,
						"w": 928,
						"h": 294
					},
					"frame": {
						"x": 542,
						"y": 1364,
						"w": 928,
						"h": 294
					}
				},
				{
					"filename": "messag-blue",
					"rotated": false,
					"trimmed": true,
					"sourceSize": {
						"w": 542,
						"h": 257
					},
					"spriteSourceSize": {
						"x": 3,
						"y": 8,
						"w": 536,
						"h": 247
					},
					"frame": {
						"x": 542,
						"y": 1660,
						"w": 536,
						"h": 247
					}
				},
				{
					"filename": "logo",
					"rotated": false,
					"trimmed": false,
					"sourceSize": {
						"w": 620,
						"h": 116
					},
					"spriteSourceSize": {
						"x": 0,
						"y": 0,
						"w": 620,
						"h": 116
					},
					"frame": {
						"x": 1029,
						"y": 549,
						"w": 620,
						"h": 116
					}
				},
				{
					"filename": "messag-white",
					"rotated": false,
					"trimmed": true,
					"sourceSize": {
						"w": 542,
						"h": 257
					},
					"spriteSourceSize": {
						"x": 3,
						"y": 8,
						"w": 536,
						"h": 247
					},
					"frame": {
						"x": 1080,
						"y": 1660,
						"w": 536,
						"h": 247
					}
				},
				{
					"filename": "talpa-network-logo",
					"rotated": false,
					"trimmed": false,
					"sourceSize": {
						"w": 419,
						"h": 170
					},
					"spriteSourceSize": {
						"x": 0,
						"y": 0,
						"w": 419,
						"h": 170
					},
					"frame": {
						"x": 1229,
						"y": 667,
						"w": 419,
						"h": 170
					}
				},
				{
					"filename": "lingo-header",
					"rotated": false,
					"trimmed": false,
					"sourceSize": {
						"w": 377,
						"h": 189
					},
					"spriteSourceSize": {
						"x": 0,
						"y": 0,
						"w": 377,
						"h": 189
					},
					"frame": {
						"x": 1229,
						"y": 839,
						"w": 377,
						"h": 189
					}
				},
				{
					"filename": "score-block-blue",
					"rotated": false,
					"trimmed": false,
					"sourceSize": {
						"w": 298,
						"h": 147
					},
					"spriteSourceSize": {
						"x": 0,
						"y": 0,
						"w": 298,
						"h": 147
					},
					"frame": {
						"x": 1229,
						"y": 1030,
						"w": 298,
						"h": 147
					}
				},
				{
					"filename": "score-block-red",
					"rotated": false,
					"trimmed": false,
					"sourceSize": {
						"w": 298,
						"h": 147
					},
					"spriteSourceSize": {
						"x": 0,
						"y": 0,
						"w": 298,
						"h": 147
					},
					"frame": {
						"x": 1229,
						"y": 1179,
						"w": 298,
						"h": 147
					}
				},
				{
					"filename": "playtime-icon",
					"rotated": false,
					"trimmed": false,
					"sourceSize": {
						"w": 115,
						"h": 115
					},
					"spriteSourceSize": {
						"x": 0,
						"y": 0,
						"w": 115,
						"h": 115
					},
					"frame": {
						"x": 542,
						"y": 1909,
						"w": 115,
						"h": 115
					}
				},
				{
					"filename": "button_blue",
					"rotated": false,
					"trimmed": false,
					"sourceSize": {
						"w": 164,
						"h": 109
					},
					"spriteSourceSize": {
						"x": 0,
						"y": 0,
						"w": 164,
						"h": 109
					},
					"frame": {
						"x": 659,
						"y": 1909,
						"w": 164,
						"h": 109
					}
				},
				{
					"filename": "button_green",
					"rotated": false,
					"trimmed": false,
					"sourceSize": {
						"w": 164,
						"h": 109
					},
					"spriteSourceSize": {
						"x": 0,
						"y": 0,
						"w": 164,
						"h": 109
					},
					"frame": {
						"x": 825,
						"y": 1909,
						"w": 164,
						"h": 109
					}
				},
				{
					"filename": "button_red",
					"rotated": false,
					"trimmed": false,
					"sourceSize": {
						"w": 164,
						"h": 109
					},
					"spriteSourceSize": {
						"x": 0,
						"y": 0,
						"w": 164,
						"h": 109
					},
					"frame": {
						"x": 991,
						"y": 1909,
						"w": 164,
						"h": 109
					}
				},
				{
					"filename": "keyboard_button_active",
					"rotated": false,
					"trimmed": false,
					"sourceSize": {
						"w": 120,
						"h": 192
					},
					"spriteSourceSize": {
						"x": 0,
						"y": 0,
						"w": 120,
						"h": 192
					},
					"frame": {
						"x": 1529,
						"y": 1030,
						"w": 120,
						"h": 192
					}
				},
				{
					"filename": "keyboard_backspace",
					"rotated": false,
					"trimmed": false,
					"sourceSize": {
						"w": 183,
						"h": 70
					},
					"spriteSourceSize": {
						"x": 0,
						"y": 0,
						"w": 183,
						"h": 70
					},
					"frame": {
						"x": 1029,
						"y": 667,
						"w": 183,
						"h": 70
					}
				},
				{
					"filename": "icon-hint-yellow",
					"rotated": false,
					"trimmed": false,
					"sourceSize": {
						"w": 140,
						"h": 140
					},
					"spriteSourceSize": {
						"x": 0,
						"y": 0,
						"w": 140,
						"h": 140
					},
					"frame": {
						"x": 1529,
						"y": 1224,
						"w": 140,
						"h": 140
					}
				},
				{
					"filename": "score-block-final",
					"rotated": false,
					"trimmed": false,
					"sourceSize": {
						"w": 201,
						"h": 148
					},
					"spriteSourceSize": {
						"x": 0,
						"y": 0,
						"w": 201,
						"h": 148
					},
					"frame": {
						"x": 1472,
						"y": 1366,
						"w": 201,
						"h": 148
					}
				},
				{
					"filename": "block_blue",
					"rotated": false,
					"trimmed": false,
					"sourceSize": {
						"w": 109,
						"h": 109
					},
					"spriteSourceSize": {
						"x": 0,
						"y": 0,
						"w": 109,
						"h": 109
					},
					"frame": {
						"x": 1157,
						"y": 1909,
						"w": 109,
						"h": 109
					}
				},
				{
					"filename": "block_red",
					"rotated": false,
					"trimmed": false,
					"sourceSize": {
						"w": 109,
						"h": 109
					},
					"spriteSourceSize": {
						"x": 0,
						"y": 0,
						"w": 109,
						"h": 109
					},
					"frame": {
						"x": 1472,
						"y": 1516,
						"w": 109,
						"h": 109
					}
				},
				{
					"filename": "messag-round-bg-blue",
					"rotated": false,
					"trimmed": false,
					"sourceSize": {
						"w": 170,
						"h": 39
					},
					"spriteSourceSize": {
						"x": 0,
						"y": 0,
						"w": 170,
						"h": 39
					},
					"frame": {
						"x": 3,
						"y": 1950,
						"w": 170,
						"h": 39
					}
				},
				{
					"filename": "messag-round-bg-red",
					"rotated": false,
					"trimmed": false,
					"sourceSize": {
						"w": 170,
						"h": 39
					},
					"spriteSourceSize": {
						"x": 0,
						"y": 0,
						"w": 170,
						"h": 39
					},
					"frame": {
						"x": 1268,
						"y": 1909,
						"w": 170,
						"h": 39
					}
				},
				{
					"filename": "bar_active",
					"rotated": false,
					"trimmed": false,
					"sourceSize": {
						"w": 99,
						"h": 70
					},
					"spriteSourceSize": {
						"x": 0,
						"y": 0,
						"w": 99,
						"h": 70
					},
					"frame": {
						"x": 1268,
						"y": 1950,
						"w": 99,
						"h": 70
					}
				},
				{
					"filename": "button-play-arrow",
					"rotated": false,
					"trimmed": false,
					"sourceSize": {
						"w": 38,
						"h": 74
					},
					"spriteSourceSize": {
						"x": 0,
						"y": 0,
						"w": 38,
						"h": 74
					},
					"frame": {
						"x": 1369,
						"y": 1950,
						"w": 38,
						"h": 74
					}
				},
				{
					"filename": "block_circle_yellow",
					"rotated": false,
					"trimmed": false,
					"sourceSize": {
						"w": 102,
						"h": 102
					},
					"spriteSourceSize": {
						"x": 0,
						"y": 0,
						"w": 102,
						"h": 102
					},
					"frame": {
						"x": 1440,
						"y": 1909,
						"w": 102,
						"h": 102
					}
				},
				{
					"filename": "bar_approved",
					"rotated": false,
					"trimmed": false,
					"sourceSize": {
						"w": 99,
						"h": 70
					},
					"spriteSourceSize": {
						"x": 0,
						"y": 0,
						"w": 99,
						"h": 70
					},
					"frame": {
						"x": 1544,
						"y": 1909,
						"w": 99,
						"h": 70
					}
				},
				{
					"filename": "bar_incorrect",
					"rotated": false,
					"trimmed": false,
					"sourceSize": {
						"w": 99,
						"h": 70
					},
					"spriteSourceSize": {
						"x": 0,
						"y": 0,
						"w": 99,
						"h": 70
					},
					"frame": {
						"x": 175,
						"y": 1950,
						"w": 99,
						"h": 70
					}
				},
				{
					"filename": "button_white",
					"rotated": false,
					"trimmed": false,
					"sourceSize": {
						"w": 99,
						"h": 70
					},
					"spriteSourceSize": {
						"x": 0,
						"y": 0,
						"w": 99,
						"h": 70
					},
					"frame": {
						"x": 276,
						"y": 1950,
						"w": 99,
						"h": 70
					}
				},
				{
					"filename": "keyboard_button_inactive",
					"rotated": false,
					"trimmed": false,
					"sourceSize": {
						"w": 57,
						"h": 70
					},
					"spriteSourceSize": {
						"x": 0,
						"y": 0,
						"w": 57,
						"h": 70
					},
					"frame": {
						"x": 1583,
						"y": 1516,
						"w": 57,
						"h": 70
					}
				},
				{
					"filename": "score_block_blue",
					"rotated": false,
					"trimmed": false,
					"sourceSize": {
						"w": 61,
						"h": 58
					},
					"spriteSourceSize": {
						"x": 0,
						"y": 0,
						"w": 61,
						"h": 58
					},
					"frame": {
						"x": 377,
						"y": 1950,
						"w": 61,
						"h": 58
					}
				},
				{
					"filename": "score_block_red",
					"rotated": false,
					"trimmed": false,
					"sourceSize": {
						"w": 61,
						"h": 58
					},
					"spriteSourceSize": {
						"x": 0,
						"y": 0,
						"w": 61,
						"h": 58
					},
					"frame": {
						"x": 440,
						"y": 1950,
						"w": 61,
						"h": 58
					}
				},
				{
					"filename": "hint-bonus",
					"rotated": false,
					"trimmed": false,
					"sourceSize": {
						"w": 37,
						"h": 37
					},
					"spriteSourceSize": {
						"x": 0,
						"y": 0,
						"w": 37,
						"h": 37
					},
					"frame": {
						"x": 503,
						"y": 1950,
						"w": 37,
						"h": 37
					}
				},
				{
					"filename": "button_back",
					"rotated": false,
					"trimmed": false,
					"sourceSize": {
						"w": 57,
						"h": 57
					},
					"spriteSourceSize": {
						"x": 0,
						"y": 0,
						"w": 57,
						"h": 57
					},
					"frame": {
						"x": 1608,
						"y": 839,
						"w": 57,
						"h": 57
					}
				},
				{
					"filename": "button_music_active",
					"rotated": false,
					"trimmed": false,
					"sourceSize": {
						"w": 57,
						"h": 57
					},
					"spriteSourceSize": {
						"x": 0,
						"y": 0,
						"w": 57,
						"h": 57
					},
					"frame": {
						"x": 1608,
						"y": 898,
						"w": 57,
						"h": 57
					}
				},
				{
					"filename": "button_music_inactive",
					"rotated": false,
					"trimmed": false,
					"sourceSize": {
						"w": 57,
						"h": 57
					},
					"spriteSourceSize": {
						"x": 0,
						"y": 0,
						"w": 57,
						"h": 57
					},
					"frame": {
						"x": 1608,
						"y": 957,
						"w": 57,
						"h": 57
					}
				},
				{
					"filename": "button_pause",
					"rotated": false,
					"trimmed": false,
					"sourceSize": {
						"w": 57,
						"h": 57
					},
					"spriteSourceSize": {
						"x": 0,
						"y": 0,
						"w": 57,
						"h": 57
					},
					"frame": {
						"x": 1583,
						"y": 1588,
						"w": 57,
						"h": 57
					}
				},
				{
					"filename": "button_sound_active",
					"rotated": false,
					"trimmed": false,
					"sourceSize": {
						"w": 57,
						"h": 57
					},
					"spriteSourceSize": {
						"x": 0,
						"y": 0,
						"w": 57,
						"h": 57
					},
					"frame": {
						"x": 1618,
						"y": 1647,
						"w": 57,
						"h": 57
					}
				},
				{
					"filename": "button_sound_inactive",
					"rotated": false,
					"trimmed": false,
					"sourceSize": {
						"w": 57,
						"h": 57
					},
					"spriteSourceSize": {
						"x": 0,
						"y": 0,
						"w": 57,
						"h": 57
					},
					"frame": {
						"x": 1618,
						"y": 1706,
						"w": 57,
						"h": 57
					}
				},
				{
					"filename": "button_voice_active",
					"rotated": false,
					"trimmed": false,
					"sourceSize": {
						"w": 57,
						"h": 57
					},
					"spriteSourceSize": {
						"x": 0,
						"y": 0,
						"w": 57,
						"h": 57
					},
					"frame": {
						"x": 1618,
						"y": 1765,
						"w": 57,
						"h": 57
					}
				},
				{
					"filename": "button_voice_inactive",
					"rotated": false,
					"trimmed": false,
					"sourceSize": {
						"w": 57,
						"h": 57
					},
					"spriteSourceSize": {
						"x": 0,
						"y": 0,
						"w": 57,
						"h": 57
					},
					"frame": {
						"x": 1618,
						"y": 1824,
						"w": 57,
						"h": 57
					}
				},
				{
					"filename": "icon_solo",
					"rotated": false,
					"trimmed": false,
					"sourceSize": {
						"w": 36,
						"h": 55
					},
					"spriteSourceSize": {
						"x": 0,
						"y": 0,
						"w": 36,
						"h": 55
					},
					"frame": {
						"x": 1630,
						"y": 3,
						"w": 36,
						"h": 55
					}
				},
				{
					"filename": "button-checkmark",
					"rotated": false,
					"trimmed": false,
					"sourceSize": {
						"w": 53,
						"h": 41
					},
					"spriteSourceSize": {
						"x": 0,
						"y": 0,
						"w": 53,
						"h": 41
					},
					"frame": {
						"x": 1544,
						"y": 1981,
						"w": 53,
						"h": 41
					}
				},
				{
					"filename": "process_bar",
					"rotated": false,
					"trimmed": false,
					"sourceSize": {
						"w": 53,
						"h": 38
					},
					"spriteSourceSize": {
						"x": 0,
						"y": 0,
						"w": 53,
						"h": 38
					},
					"frame": {
						"x": 1599,
						"y": 1981,
						"w": 53,
						"h": 38
					}
				},
				{
					"filename": "hint-notification",
					"rotated": false,
					"trimmed": false,
					"sourceSize": {
						"w": 24,
						"h": 24
					},
					"spriteSourceSize": {
						"x": 0,
						"y": 0,
						"w": 24,
						"h": 24
					},
					"frame": {
						"x": 1618,
						"y": 1883,
						"w": 24,
						"h": 24
					}
				},
				{
					"filename": "process_bar_fill_new",
					"rotated": false,
					"trimmed": false,
					"sourceSize": {
						"w": 26,
						"h": 27
					},
					"spriteSourceSize": {
						"x": 0,
						"y": 0,
						"w": 26,
						"h": 27
					},
					"frame": {
						"x": 1029,
						"y": 739,
						"w": 26,
						"h": 27
					}
				},
				{
					"filename": "checkmark",
					"rotated": false,
					"trimmed": false,
					"sourceSize": {
						"w": 17,
						"h": 12
					},
					"spriteSourceSize": {
						"x": 0,
						"y": 0,
						"w": 17,
						"h": 12
					},
					"frame": {
						"x": 1608,
						"y": 1016,
						"w": 17,
						"h": 12
					}
				},
				{
					"filename": "buttonBone",
					"rotated": false,
					"trimmed": false,
					"sourceSize": {
						"w": 39,
						"h": 7
					},
					"spriteSourceSize": {
						"x": 0,
						"y": 0,
						"w": 39,
						"h": 7
					},
					"frame": {
						"x": 1229,
						"y": 1328,
						"w": 39,
						"h": 7
					}
				},
				{
					"filename": "button_arrow",
					"rotated": false,
					"trimmed": false,
					"sourceSize": {
						"w": 16,
						"h": 24
					},
					"spriteSourceSize": {
						"x": 0,
						"y": 0,
						"w": 16,
						"h": 24
					},
					"frame": {
						"x": 1644,
						"y": 1883,
						"w": 16,
						"h": 24
					}
				}
			]
		}
	],
	"meta": {
		"app": "https://www.codeandweb.com/texturepacker",
		"version": "3.0",
		"smartupdate": "$TexturePacker:SmartUpdate:b7392debc305eff607e16f4035cb1acc:3e6cca0f7939f4276ba1109af7a3a575:8141c0d8370228a8661c55b8bcf20981$"
	}
}
