{
	"textures": [
		{
			"image": "menuBackgrounds.png",
			"format": "RGBA8888",
			"size": {
				"w": 1286,
				"h": 2008
			},
			"scale": 1,
			"frames": [
				{
					"filename": "background",
					"rotated": false,
					"trimmed": false,
					"sourceSize": {
						"w": 720,
						"h": 1280
					},
					"spriteSourceSize": {
						"x": 0,
						"y": 0,
						"w": 720,
						"h": 1280
					},
					"frame": {
						"x": 3,
						"y": 3,
						"w": 720,
						"h": 1280
					}
				},
				{
					"filename": "background_landscape",
					"rotated": false,
					"trimmed": false,
					"sourceSize": {
						"w": 1280,
						"h": 720
					},
					"spriteSourceSize": {
						"x": 0,
						"y": 0,
						"w": 1280,
						"h": 720
					},
					"frame": {
						"x": 3,
						"y": 1285,
						"w": 1280,
						"h": 720
					}
				}
			]
		}
	],
	"meta": {
		"app": "https://www.codeandweb.com/texturepacker",
		"version": "3.0",
		"smartupdate": "$TexturePacker:SmartUpdate:8bc624f85ae932ddc7fdad28a6202bf9:62d59187e30c6b7df7353039315849db:280cf793adb047b89bea358828d84727$"
	}
}
