{
	"textures": [
		{
			"image": "preload.png",
			"format": "RGBA8888",
			"size": {
				"w": 2008,
				"h": 1286
			},
			"scale": 1,
			"frames": [
				{
					"filename": "background",
					"rotated": false,
					"trimmed": false,
					"sourceSize": {
						"w": 720,
						"h": 1280
					},
					"spriteSourceSize": {
						"x": 0,
						"y": 0,
						"w": 720,
						"h": 1280
					},
					"frame": {
						"x": 3,
						"y": 3,
						"w": 720,
						"h": 1280
					}
				},
				{
					"filename": "background_landscape",
					"rotated": false,
					"trimmed": false,
					"sourceSize": {
						"w": 1280,
						"h": 720
					},
					"spriteSourceSize": {
						"x": 0,
						"y": 0,
						"w": 1280,
						"h": 720
					},
					"frame": {
						"x": 725,
						"y": 3,
						"w": 1280,
						"h": 720
					}
				}
			]
		}
	],
	"meta": {
		"app": "https://www.codeandweb.com/texturepacker",
		"version": "3.0",
		"smartupdate": "$TexturePacker:SmartUpdate:71f97b3ba7569ac3375355e9dac32fba:d9df933179c1afef7d42bd012ab5c498:0790f32caa6e98ceb330f91ea7d22e84$"
	}
}
