{
    "astronaut": [
        {
            "name": "head",
            "xOffset": 0,
            "yOffset": -57
        },
        {
            "name": "hand",
            "xOffset": -30,
            "yOffset": -5,
            "angle": 292
        },
        {
            "name": "hand",
            "xOffset": 30,
            "yOffset": -5,
            "scale": -1,
            "angle": 68
        },
        {
            "name": "leg",
            "xOffset": -10,
            "yOffset": 50
        },
        {
            "name": "leg",
            "xOffset": 10,
            "yOffset": 50
        }
    ],
    "cow": [
        {
            "name": "cow_head",
            "front": true,
            "xOffset": -50,
            "yOffset": -30
        },
        {
            "name": "cow_tail",
            "front": false,
            "xOffset": 65,
            "yOffset": 0
        }
    ]
}