﻿{
  "en": {
    "translation": {
      "level1": "Don't let the shapes fall",
      "level": "Level ",
      "win": "Win!",
      "next": "Next",
      "restart": "Restart",
      "language": "Русский",
      "congrats": "Congratulations!",
      "complete": "To be continued...",
      "exit": "Back",
      "play": "Play",
      "skip": "Skip",
      "fail": "Fail",
      "select": "Choose a level"
    }
  },
  "ru": {
    "translation": {
      "level1": "Поставь фигуры так, чтобы они не упали",
      "level": "Уровень ",
      "congrats": "Поздравляем!",
      "complete": "Продолжение следует...",
      "win": "Победа!",
      "next": "Следующий",
      "restart": "Повтор",
      "exit": "Назад",
      "language": "English",
      "play": "Играть",
      "skip": "Пропустить",
      "fail": "Неудача",
      "select": "Выберите уровень"
    }
  }
}