{
	"alpha": {
		"start": 0.74,
		"end": 0
	},
	"scale": {
		"start": 0.1,
		"end": 0.7,
		"minimumScaleMultiplier": 1
	},
	"color": {
		"start": "#bda191",
		"end": "#ffffff"
	},
	"speed": {
		"start": 75,
		"end": 25,
		"minimumSpeedMultiplier": 1
	},
	"acceleration": {
		"x": 0,
		"y": 0
	},
	"maxSpeed": 0,
	"startRotation": {
		"min": 0,
		"max": 360
	},
	"noRotation": false,
	"rotationSpeed": {
		"min": 0,
		"max": 200
	},
	"lifetime": {
		"min": 0.4,
		"max": 0.7
	},
	"blendMode": "normal",
	"frequency": 0.001,
	"emitterLifetime": 0.02,
	"maxParticles": 1000,
	"pos": {
		"x": 0,
		"y": 0
	},
	"addAtBack": true,
	"spawnType": "point"
}